nochristmas - Arimax, Arfima, Fourier with event name
…
path     <- 'exported_sales_data/WithoutChristmas/'
data     <- vroom(str_c(path,'sales_per_dept_with_price_events_noChristmas.csv'), delim = ",", col_types = cols()) #_noChristmas
dept.ids  <- unique(data$dept_id)
data

## Warning: `...` is not empty.
## 
## We detected these problematic arguments:
## * `needs_dots`
## 
## These dots only exist to allow future extensions and should be empty.
## Did you misspecify an argument?

## # A tibble: 11,907 x 21
##    dept_id dates      sales wm_yr_wk weekday  wday month  year d    
##    <chr>   <date>     <dbl>    <dbl> <chr>   <dbl> <dbl> <dbl> <chr>
##  1 FOODS_1 2011-01-29  2343    11101 Saturd~     1     1  2011 d_1  
##  2 FOODS_1 2011-01-30  2216    11101 Sunday      2     1  2011 d_2  
##  3 FOODS_1 2011-01-31  1657    11101 Monday      3     1  2011 d_3  
##  4 FOODS_1 2011-02-01  1508    11101 Tuesday     4     2  2011 d_4  
##  5 FOODS_1 2011-02-02  1209    11101 Wednes~     5     2  2011 d_5  
##  6 FOODS_1 2011-02-03  1897    11101 Thursd~     6     2  2011 d_6  
##  7 FOODS_1 2011-02-04  1903    11101 Friday      7     2  2011 d_7  
##  8 FOODS_2 2011-01-29  4094    11101 Saturd~     1     1  2011 d_1  
##  9 FOODS_2 2011-01-30  4209    11101 Sunday      2     1  2011 d_2  
## 10 FOODS_2 2011-01-31  3174    11101 Monday      3     1  2011 d_3  
## # ... with 11,897 more rows, and 12 more variables: event_name_1 <chr>,
## #   event_type_1 <chr>, event_name_2 <chr>, event_type_2 <chr>,
## #   snap_CA <dbl>, snap_TX <dbl>, snap_WI <dbl>, sell_price_mean <dbl>,
## #   sell_price_min <dbl>, sell_price_max <dbl>, sell_price_median <dbl>,
## #   Is_weekday <dbl>
…
